Jan 03, 2022 12:18:42 AM Week2.UserController LogFile
INFO: Start
Jan 03, 2022 12:19:18 AM Week2.UserController LogFile
INFO: Start
Jan 03, 2022 12:19:23 AM Week2.UserController LogFile
INFO: user1 has log in
