Jan 02, 2022 11:54:08 PM Week2.UserController LogFile
INFO: user1 has log in
Jan 02, 2022 11:55:11 PM Week2.UserController LogFile
INFO: user1 has log in
Jan 02, 2022 11:57:31 PM Week2.UserController LogFile
INFO: wrong user or password for user: sad
